…
    ## Warning in full_join(dn_nc, lq_nc, by = "state"): Detected an unexpected many-to-many relationship between `x` and `y`.
    ## ℹ Row 1 of `x` matches multiple rows in `y`.
    ## ℹ Row 1 of `y` matches multiple rows in `x`.
    ## ℹ If a many-to-many relationship is expected, set `relationship =
    ##   "many-to-many"` to silence this warning.

``` r
dn_lq_nc
```

    ## # A tibble: 336 × 11
    ##    address.x    city.x state zip.x longitude.x latitude.x address.y city.y zip.y
    ##    <chr>        <chr>  <chr> <chr>       <dbl>      <dbl> <chr>     <chr>  <chr>
    ##  1 1 Regent Pa… Ashev… NC    28806       -82.6       35.6 165 Hwy … "\nBo… 28607
    ##  2 1 Regent Pa… Ashev… NC    28806       -82.6       35.6 3127 Slo… "\nCh… 28208
    ##  3 1 Regent Pa… Ashev… NC    28806       -82.6       35.6 4900 Sou… "\nCh… 28217
    ##  4 1 Regent Pa… Ashev… NC    28806       -82.6       35.6 4414 Dur… "\nDu… 27707
    ##  5 1 Regent Pa… Ashev… NC    28806       -82.6       35.6 1910 Wes… "\nDu… 27713
    ##  6 1 Regent Pa… Ashev… NC    28806       -82.6       35.6 1201 Lan… "\nGr… 27407
    ##  7 1 Regent Pa… Ashev… NC    28806       -82.6       35.6 1607 Fai… "\nCo… 28613
    ##  8 1 Regent Pa… Ashev… NC    28806       -82.6       35.6 191 Cres… "\nCa… 27518
    ##  9 1 Regent Pa… Ashev… NC    28806       -82.6       35.6 2211 Sum… "\nRa… 27612
    ## 10 1 Regent Pa… Ashev… NC    28806       -82.6       35.6 1001 Aer… "\nMo… 27560
    ## # ℹ 326 more rows
    ## # ℹ 2 more variables: longitude.y <dbl>, latitude.y <dbl>

``` r
dn_lq_nc <- dn_lq_nc %>%
  mutate(distance = haversine(longitude.x, latitude.x, longitude.y, latitude.y))

print(dn_lq_nc)
```

    ## # A tibble: 336 × 12
    ##    address.x    city.x state zip.x longitude.x latitude.x address.y city.y zip.y
    ##    <chr>        <chr>  <chr> <chr>       <dbl>      <dbl> <chr>     <chr>  <chr>
    ##  1 1 Regent Pa… Ashev… NC    28806       -82.6       35.6 165 Hwy … "\nBo… 28607
    ##  2 1 Regent Pa… Ashev… NC    28806       -82.6       35.6 3127 Slo… "\nCh… 28208
    ##  3 1 Regent Pa… Ashev… NC    28806       -82.6       35.6 4900 Sou… "\nCh… 28217
    ##  4 1 Regent Pa… Ashev… NC    28806       -82.6       35.6 4414 Dur… "\nDu… 27707
    ##  5 1 Regent Pa… Ashev… NC    28806       -82.6       35.6 1910 Wes… "\nDu… 27713
    ##  6 1 Regent Pa… Ashev… NC    28806       -82.6       35.6 1201 Lan… "\nGr… 27407
    ##  7 1 Regent Pa… Ashev… NC    28806       -82.6       35.6 1607 Fai… "\nCo… 28613
    ##  8 1 Regent Pa… Ashev… NC    28806       -82.6       35.6 191 Cres… "\nCa… 27518
    ##  9 1 Regent Pa… Ashev… NC    28806       -82.6       35.6 2211 Sum… "\nRa… 27612
    ## 10 1 Regent Pa… Ashev… NC    28806       -82.6       35.6 1001 Aer… "\nMo… 27560
    ## # ℹ 326 more rows
    ## # ℹ 3 more variables: longitude.y <dbl>, latitude.y <dbl>, distance <dbl>

### Exercise 9.4

``` r
dn_lq_nc_minidis <- dn_lq_nc %>%
  group_by(address.x) %>%
  summarize(closest = min(distance))

print(dn_lq_nc_minidis)
```

    ## # A tibble: 28 × 2
    ##    address.x                 closest
    ##    <chr>                       <dbl>
    ##  1 1 Regent Park Boulevard     108. 
    ##  2 101 Wintergreen Dr          120. 
    ##  3 103 Sedgehill Dr             26.7
    ##  4 1043 Jimmie Kerr Road        36.1
    ##  5 1201 S College Road         188. 
    ##  6 1209 Burkemount Avenue       39.1
    ##  7 1493 Us Hwy 74-A Bypass      70.1
    ##  8 1524 Dabney Dr               59.5
    ##  9 1550 Four Seasons           115. 
    ## 10 1800 Princeton-Kenly Road    55.9
    ## # ℹ 18 more rows
…
    ## Warning in full_join(dn_tx, lq_tx, by = "state"): Detected an unexpected many-to-many relationship between `x` and `y`.
    ## ℹ Row 1 of `x` matches multiple rows in `y`.
    ## ℹ Row 1 of `y` matches multiple rows in `x`.
    ## ℹ If a many-to-many relationship is expected, set `relationship =
    ##   "many-to-many"` to silence this warning.

``` r
dn_lq_tx
```

    ## # A tibble: 47,400 × 11
    ##    address.x    city.x state zip.x longitude.x latitude.x address.y city.y zip.y
    ##    <chr>        <chr>  <chr> <chr>       <dbl>      <dbl> <chr>     <chr>  <chr>
    ##  1 120 East I-… Abile… TX    79601       -99.6       32.4 3018 Cat… "\nAb… 79606
    ##  2 120 East I-… Abile… TX    79601       -99.6       32.4 3501 Wes… "\nAb… 79601
    ##  3 120 East I-… Abile… TX    79601       -99.6       32.4 14925 La… "\nAd… 75254
    ##  4 120 East I-… Abile… TX    79601       -99.6       32.4 909 East… "\nAl… 78516
    ##  5 120 East I-… Abile… TX    79601       -99.6       32.4 2400 Eas… "\nAl… 78332
    ##  6 120 East I-… Abile… TX    79601       -99.6       32.4 1220 Nor… "\nAl… 75013
    ##  7 120 East I-… Abile… TX    79601       -99.6       32.4 1165 Hwy… "\nAl… 76009
    ##  8 120 East I-… Abile… TX    79601       -99.6       32.4 880 Sout… "\nAl… 77511
    ##  9 120 East I-… Abile… TX    79601       -99.6       32.4 1708 Int… "\nAm… 79103
    ## 10 120 East I-… Abile… TX    79601       -99.6       32.4 9305 Eas… "\nAm… 79118
    ## # ℹ 47,390 more rows
    ## # ℹ 2 more variables: longitude.y <dbl>, latitude.y <dbl>

``` r
dn_lq_tx <- dn_lq_tx %>%
  mutate(distance = haversine(longitude.x, latitude.x, longitude.y, latitude.y))

print(dn_lq_tx)
```

    ## # A tibble: 47,400 × 12
    ##    address.x    city.x state zip.x longitude.x latitude.x address.y city.y zip.y
    ##    <chr>        <chr>  <chr> <chr>       <dbl>      <dbl> <chr>     <chr>  <chr>
    ##  1 120 East I-… Abile… TX    79601       -99.6       32.4 3018 Cat… "\nAb… 79606
    ##  2 120 East I-… Abile… TX    79601       -99.6       32.4 3501 Wes… "\nAb… 79601
    ##  3 120 East I-… Abile… TX    79601       -99.6       32.4 14925 La… "\nAd… 75254
    ##  4 120 East I-… Abile… TX    79601       -99.6       32.4 909 East… "\nAl… 78516
    ##  5 120 East I-… Abile… TX    79601       -99.6       32.4 2400 Eas… "\nAl… 78332
    ##  6 120 East I-… Abile… TX    79601       -99.6       32.4 1220 Nor… "\nAl… 75013
    ##  7 120 East I-… Abile… TX    79601       -99.6       32.4 1165 Hwy… "\nAl… 76009
    ##  8 120 East I-… Abile… TX    79601       -99.6       32.4 880 Sout… "\nAl… 77511
    ##  9 120 East I-… Abile… TX    79601       -99.6       32.4 1708 Int… "\nAm… 79103
    ## 10 120 East I-… Abile… TX    79601       -99.6       32.4 9305 Eas… "\nAm… 79118
    ## # ℹ 47,390 more rows
    ## # ℹ 3 more variables: longitude.y <dbl>, latitude.y <dbl>, distance <dbl>

### Exercise 10.4

``` r
dn_lq_tx_minidis <- dn_lq_tx %>%
  group_by(address.x) %>%
  summarize(closest = min(distance))

print(dn_lq_tx_minidis)
```

    ## # A tibble: 200 × 2
    ##    address.x             closest
    ##    <chr>                   <dbl>
    ##  1 100 Cottonwood         33.6  
    ##  2 100 E Pinehurst         1.39 
    ##  3 100 Us Highway 79 S    33.9  
    ##  4 101 N Fm 707           10.3  
    ##  5 1011 Beltway Parkway   14.0  
    ##  6 1015 Spur 350 West      1.74 
    ##  7 1015 West Main St       1.10 
    ##  8 10367 Highway 59       37.6  
    ##  9 10433 N Central Expwy   0.618
    ## 10 105 W 42nd St           6.88 
    ## # ℹ 190 more rows
…
    ## Warning in full_join(dn_oh, lq_oh, by = "state"): Detected an unexpected many-to-many relationship between `x` and `y`.
    ## ℹ Row 1 of `x` matches multiple rows in `y`.
    ## ℹ Row 1 of `y` matches multiple rows in `x`.
    ## ℹ If a many-to-many relationship is expected, set `relationship =
    ##   "many-to-many"` to silence this warning.

``` r
dn_lq_oh
```

    ## # A tibble: 748 × 11
    ##    address.x    city.x state zip.x longitude.x latitude.x address.y city.y zip.y
    ##    <chr>        <chr>  <chr> <chr>       <dbl>      <dbl> <chr>     <chr>  <chr>
    ##  1 1681 Home A… Akron  OH    44310       -81.5       41.1 5335 Bro… "\nCa… 44709
    ##  2 1681 Home A… Akron  OH    44310       -81.5       41.1 12150 Sp… "\nSp… 45246
    ##  3 1681 Home A… Akron  OH    44310       -81.5       41.1 9918 Esc… "\nMa… 45040
    ##  4 1681 Home A… Akron  OH    44310       -81.5       41.1 11029 Do… "\nCi… 45241
    ##  5 1681 Home A… Akron  OH    44310       -81.5       41.1 4222 Wes… "\nCl… 44135
    ##  6 1681 Home A… Akron  OH    44310       -81.5       41.1 25105 Co… "\nNo… 44070
    ##  7 1681 Home A… Akron  OH    44310       -81.5       41.1 6161 Qua… "\nIn… 44131
    ##  8 1681 Home A… Akron  OH    44310       -81.5       41.1 268 East… "\nMa… 44056
    ##  9 1681 Home A… Akron  OH    44310       -81.5       41.1 2447 Bri… "\nRe… 43068
    ## 10 1681 Home A… Akron  OH    44310       -81.5       41.1 6145 Par… "\nDu… 43017
    ## # ℹ 738 more rows
    ## # ℹ 2 more variables: longitude.y <dbl>, latitude.y <dbl>

``` r
dn_lq_oh <- dn_lq_oh %>%
  mutate(distance = haversine(longitude.x, latitude.x, longitude.y, latitude.y))

print(dn_lq_oh)
```

    ## # A tibble: 748 × 12
    ##    address.x    city.x state zip.x longitude.x latitude.x address.y city.y zip.y
    ##    <chr>        <chr>  <chr> <chr>       <dbl>      <dbl> <chr>     <chr>  <chr>
    ##  1 1681 Home A… Akron  OH    44310       -81.5       41.1 5335 Bro… "\nCa… 44709
    ##  2 1681 Home A… Akron  OH    44310       -81.5       41.1 12150 Sp… "\nSp… 45246
    ##  3 1681 Home A… Akron  OH    44310       -81.5       41.1 9918 Esc… "\nMa… 45040
    ##  4 1681 Home A… Akron  OH    44310       -81.5       41.1 11029 Do… "\nCi… 45241
    ##  5 1681 Home A… Akron  OH    44310       -81.5       41.1 4222 Wes… "\nCl… 44135
    ##  6 1681 Home A… Akron  OH    44310       -81.5       41.1 25105 Co… "\nNo… 44070
    ##  7 1681 Home A… Akron  OH    44310       -81.5       41.1 6161 Qua… "\nIn… 44131
    ##  8 1681 Home A… Akron  OH    44310       -81.5       41.1 268 East… "\nMa… 44056
    ##  9 1681 Home A… Akron  OH    44310       -81.5       41.1 2447 Bri… "\nRe… 43068
    ## 10 1681 Home A… Akron  OH    44310       -81.5       41.1 6145 Par… "\nDu… 43017
    ## # ℹ 738 more rows
    ## # ℹ 3 more variables: longitude.y <dbl>, latitude.y <dbl>, distance <dbl>

### Exercise 11.4

``` r
dn_lq_oh_minidis <- dn_lq_oh %>%
  group_by(address.x) %>%
  summarize(closest = min(distance))

print(dn_lq_oh_minidis)
```

    ## # A tibble: 44 × 2
    ##    address.x                closest
    ##    <chr>                      <dbl>
    ##  1 10 Airport Rd              79.7 
    ##  2 10480 Baltimore            19.7 
    ##  3 1050 Mt Vernon Ave         51.6 
    ##  4 1051 Interstate Court      54.7 
    ##  5 1122 Buck Road              5.44
    ##  6 1136 South Main Street     11.1 
    ##  7 1256 W High Extension      40.8 
    ##  8 154 Boardman-Canfield Rd   65.7 
    ##  9 1681 Home Ave              20.5 
    ## 10 1750 Cedar Street          38.3 
    ## # ℹ 34 more rows
…
